<?xml version="1.0" encoding="utf-8"?>

<svg width="27px" height="28px" viewBox="0 0 27 28" version="1.1" xmlns="http://www.w3.org/2000/svg" xmlns:xlink="http://www.w3.org/1999/xlink">
    <!-- Generator: sketchtool 56.3 (101010) - https://sketch.com -->
    <title>EF301657-538D-4D67-BF2C-8243D5BE73C5</title>
    <desc>Created with sketchtool.</desc>
    <g id="Page-1" stroke="none" stroke-width="1" fill="none" fill-rule="evenodd">
        <g id="Homepage-V3-Menu" transform="translate(-1277.000000, -4881.000000)" fill="#FFFFFF">
            <g id="icon-/-font-awesome-/-brands-/-500px-Copy-362-icon-/-font-awesome-/-brands-/-twitter-square" transform="translate(1275.700346, 4880.000000)">
                <path d="M25.3124999,1.87499989 L4.68749989,1.87499989 C3.13476551,1.87499989 1.87499989,3.13476551 1.87499989,4.68749989 L1.87499989,25.3124999 C1.87499989,26.8652343 3.13476551,28.1249999 4.68749989,28.1249999 L25.3124999,28.1249999 C26.8652343,28.1249999 28.1249999,26.8652343 28.1249999,25.3124999 L28.1249999,4.68749989 C28.1249999,3.13476551 26.8652343,1.87499989 25.3124999,1.87499989 Z M22.4472655,11.1796873 C22.4589843,11.3437498 22.4589843,11.5136717 22.4589843,11.6777342 C22.4589843,16.7578122 18.5917968,22.6113277 11.5253905,22.6113277 C9.34570301,22.6113277 7.32421864,21.9785152 5.62499989,20.8886714 C5.93554676,20.9238277 6.23437489,20.9355464 6.55078114,20.9355464 C8.34960926,20.9355464 10.001953,20.3261715 11.3203124,19.2949215 C9.63281239,19.2597652 8.21484364,18.1523434 7.72851551,16.6289059 C8.32031239,16.7167965 8.85351551,16.7167965 9.46289051,16.5585934 C7.70507801,16.2011716 6.38671864,14.6542966 6.38671864,12.785156 L6.38671864,12.738281 C6.89648426,13.0253904 7.49414051,13.2011716 8.12109364,13.2246091 C7.05049686,12.5124822 6.40805109,11.3111967 6.41015614,10.0253905 C6.41015614,9.31054672 6.59765614,8.65429673 6.93164051,8.08593737 C8.82421864,10.4179686 11.6660155,11.941406 14.8535155,12.1054685 C14.3085936,9.49804671 16.2597655,7.38281239 18.6035155,7.38281239 C19.7109374,7.38281239 20.7070311,7.845703 21.4101561,8.59570298 C22.2773436,8.43164049 23.1093749,8.10937487 23.8476561,7.66992176 C23.5605468,8.56054674 22.9570311,9.31054672 22.1601561,9.78515608 C22.9335936,9.70312483 23.6835936,9.48632796 24.3749999,9.18749985 C23.8535155,9.95507795 23.1972655,10.6347654 22.4472655,11.1796873 L22.4472655,11.1796873 Z" id="twitter-square"></path>
            </g>
        </g>
    </g>
</svg>
